…
Let´s convert it to a tibble

``` r
as_tibble(fromJSON(content(r, "text", encoding = "UTF-8")))
```

    # A tibble: 35 × 5
       description array                 format      type  vendor  
       <chr>       <chr>                 <chr>       <chr> <chr>   
     1 <NA>        OneArray              EXPRESSION  OLIGO PHALANX 
     2 <NA>        CODELINK              EXPRESSION  OLIGO CODELINK
     3 <NA>        HumanWG_6_V3          EXPRESSION  OLIGO ILLUMINA
     4 <NA>        GPL6848               EXPRESSION  OLIGO AGILENT 
     5 <NA>        HumanMethylation450   METHYLATION OLIGO ILLUMINA
     6 <NA>        HumanRef-8_V3         EXPRESSION  OLIGO ILLUMINA
     7 <NA>        WholeGenome           EXPRESSION  OLIGO AGILENT 
     8 <NA>        CGH_44b               CGH         OLIGO AGILENT 
     9 <NA>        SurePrint_G3_GE_8x60k EXPRESSION  OLIGO AGILENT 
    10 <NA>        HC-G110               EXPRESSION  OLIGO AFFY    
    # … with 25 more rows
…
server <- "https://rest.kegg.jp"
ext <- "/list/pathway/hsa"
 
r <- GET(paste(server, ext, sep = ""), content_type("application/json"))
 
txt <- content(r, "text")
df <- tibble(kegg_results = read_lines(txt))
```

``` r
df %>% separate(., col=kegg_results, into=c('Pathway_number', 'Pathway_name'), sep='\t')
```

    # A tibble: 352 × 2
       Pathway_number Pathway_name                                                  
       <chr>          <chr>                                                         
     1 path:hsa00010  Glycolysis / Gluconeogenesis - Homo sapiens (human)           
     2 path:hsa00020  Citrate cycle (TCA cycle) - Homo sapiens (human)              
     3 path:hsa00030  Pentose phosphate pathway - Homo sapiens (human)              
     4 path:hsa00040  Pentose and glucuronate interconversions - Homo sapiens (huma…
     5 path:hsa00051  Fructose and mannose metabolism - Homo sapiens (human)        
     6 path:hsa00052  Galactose metabolism - Homo sapiens (human)                   
     7 path:hsa00053  Ascorbate and aldarate metabolism - Homo sapiens (human)      
     8 path:hsa00061  Fatty acid biosynthesis - Homo sapiens (human)                
     9 path:hsa00062  Fatty acid elongation - Homo sapiens (human)                  
    10 path:hsa00071  Fatty acid degradation - Homo sapiens (human)                 
    # … with 342 more rows
…
